{
  "projname": "BTS Bot",
  "port": 8082,
  "metadomain": "btsbot.439bananas.com",
  "discord": "https://discord.gg/ahyzfEv",
  "twitter": "https://twitter.com/BTSBotDiscord",
  "defaultlanguage": "en-gb",
  "perms": "1495625362655",
  "defaultemail": "btsbot@439bananas.com",
  "defaulthashingrounds": 32,
  "countvisiblesettings": 22,
  "hashmemorycost": 14,
  "settings": [
    [ "language", "en-gb" ],
    [ "hostname", "127.0.0.1" ],
    [ "dbusername", "btsbot" ],
    [ "database", "btsbot" ],
    [ "tableprefix", "" ],
    [ "redishostname", "127.0.0.1" ],
    [ "redisusername", "" ],
    [ "redisdatabase", 0 ],
    [ "pstatus", "" ],
    [ "ostatus", "online" ],
    [ "guildid", "" ],
    [ "moderatorsroleid", "" ],
    [ "googleclientid", "" ],
    [ "msclientid", "" ],
    [ "smtpserver", "" ],
    [ "smtpport", "" ],
    [ "smtpssl", true ],
    [ "imapssl", true ],
    [ "imapserver", "" ],
    [ "imapport", "" ],
    [ "emailaddress", "" ],
    [ "emailusername", "" ],
    [ "emailpassword", "" ],
    [ "dbpassword", "" ],
    [ "redispassword", "" ],
    [ "token", "" ],
    [ "discordclientsecret", "" ],
    [ "ownerid", "" ],
    [ "googleclientsecret", "" ],
    [ "msclientsecret", "" ]
  ]
}